{
  "bindings": [
    {
      "authLevel": "function",
      "type": "httpTrigger",
      "direction": "in",
      "name": "req",
      "methods": [
        "get",
        "post"
      ],
      "route": "orders"
    },
    {
      "type": "http",
      "direction": "out",
      "name": "res"
    }
  ]
}
